Kazanlak Kriging
…
## Simple feature collection with 155 features and 28 fields
## geometry type:  POINT
## dimension:      XY
## bbox:           xmin: 352042.5 ymin: 4712741 xmax: 369014.3 ymax: 4730478
## projected CRS:  WGS 84 / UTM zone 35N
## # A tibble: 155 x 29
##       ID Priority    pH Salinity Notes    OM Carbonate Colour Land_use Texture
##  * <dbl>    <dbl> <dbl>    <dbl> <chr> <dbl>     <dbl> <chr>  <chr>    <chr>  
##  1     0        0     0        0 SE     1.2          0 10YR4~ Disturb~ Chalky~
##  2     1        0     0        0 SE     3            0 10YR3~ Terrace~ Sandy ~
##  3     2        0     0        0 SW     2.25         0 10YR3~ Pasture  Sandy ~
##  4     3        0     0        0 SW     4            0 10YR3~ Disturb~ Light ~
##  5     4        0     0        0 <NA>   1.5          0 10YR3~ Pasture  Sandy ~
##  6     5        0     0        0 E      0.8          0 10YR4~ Pine fo~ Chalky~
##  7     7        0     0        0 NW     2.25         0 10YR3~ Rotary ~ Loam   
##  8     6        0     0        0 <NA>   3            0 10YR3~ Blueber~ Clay l~
##  9     8        0     0        0 NW     1.5          0 10YR3~ Oak for~ Sandy ~
## 10    11        0     0        0 NE     0.8          0 10YR4~ Ploughe~ Clay l~
## # ... with 145 more rows, and 19 more variables: Photo <chr>, Day <dbl>,
## #   Text_desc <chr>, Coarse_siz <dbl>, Coarse_per <dbl>, Coarse_rou <dbl>,
## #   Text_silt <dbl>, Text_sand <dbl>, Text_clay <dbl>, Sum <dbl>, Struct <dbl>,
## #   Perm_rock <dbl>, k_factor <dbl>, OM_muns <dbl>, Density <dbl>,
## #   TARGET_FID <dbl>, geometry <POINT [m]>, X <dbl>, Y <dbl>
…
